Emp Code,Emp Name,Designation,Department,Payslip Month,DOJ,Total days,Lop days,Payable Days,Leave opening,Leave Taken,Leave Balance, Basic ,Hra, Tra,Conveyance Allowance,Medical Allowance,Other Allowance,Perks,Incentive, PF , ESI , Ptax, Income_Tax , Salary Advance , Medical Claim , Total Earnings , Total Deductions, Net Payable ,ESI NO,UAN NO.,EPF No,Bank account no, IFSC CODE ,Pan Card No, EMAIL_TO,cc
SD2511,Venkatesh V,Web Developer,IT,April – 2021,01-03-2021,31,1,30,1,2,3,15200,200,155,1440,250,250,100,11,2500,3500,250,500,2500,150,225555,1000,25000,1545000,144,245005,5646465465,SBIN001111,Bmmamam,talamarlapremanath@gmail.com,talamarlapremanath143@gmail.com
AL8555A,Rajini K,Delivery,Fieldwork,March – 2021,01-01-2011,30,5,22,0,1,2,25000,3600,5000,3600,1000,1000,360,221,963,225,225,340,500,550,254100,6500,75000,465456,654564564,56456446,23123123123,andb025552,dgfd5454f,premanath.2143@gmail.com,talamarlapremanath143@gmail.com
ML25144a,Machineni R,Accountant,Accounts,Jan – 2021,02-10-201,31,4,30,2,3,4,10000,4500,2000,2500,500,2501,145,250,542,5658,222,330,620,400,250000,3000,32500,4556456,45645456,4654564,2312313212312,andb011155,dfd646545,premanath.2143@gmail.com,talamarlapremanath143@gmail.com
